06-16-2016 @ 19:10:08 - Queuing 2.6.0 - wc_update_260_options
06-16-2016 @ 19:10:08 - Queuing 2.6.0 - wc_update_260_termmeta
06-16-2016 @ 19:10:08 - Queuing 2.6.0 - wc_update_260_zones
06-16-2016 @ 19:10:08 - Queuing 2.6.0 - wc_update_260_zone_methods
06-16-2016 @ 19:10:08 - Queuing 2.6.0 - wc_update_260_refunds
06-16-2016 @ 19:10:08 - Queuing 2.6.0 - wc_update_260_db_version
06-16-2016 @ 19:10:09 - Running wc_update_260_options callback
06-16-2016 @ 19:10:09 - Finished wc_update_260_options callback
06-16-2016 @ 19:10:09 - Running wc_update_260_termmeta callback
06-16-2016 @ 19:10:09 - Finished wc_update_260_termmeta callback
06-16-2016 @ 19:10:09 - Running wc_update_260_zones callback
06-16-2016 @ 19:10:09 - Finished wc_update_260_zones callback
06-16-2016 @ 19:10:09 - Running wc_update_260_zone_methods callback
06-16-2016 @ 19:10:09 - Finished wc_update_260_zone_methods callback
06-16-2016 @ 19:10:09 - Running wc_update_260_refunds callback
06-16-2016 @ 19:10:09 - Finished wc_update_260_refunds callback
06-16-2016 @ 19:10:09 - Running wc_update_260_db_version callback
06-16-2016 @ 19:10:09 - Finished wc_update_260_db_version callback
06-16-2016 @ 19:10:09 - Data update complete
2017-05-04T19:43:34+00:00 INFO Queuing 3.0.0 - wc_update_300_webhooks
2017-05-04T19:43:34+00:00 INFO Queuing 3.0.0 - wc_update_300_grouped_products
2017-05-04T19:43:34+00:00 INFO Queuing 3.0.0 - wc_update_300_settings
2017-05-04T19:43:34+00:00 INFO Queuing 3.0.0 - wc_update_300_product_visibility
2017-05-04T19:43:34+00:00 INFO Queuing 3.0.0 - wc_update_300_db_version
2017-05-04T19:43:36+00:00 INFO Running wc_update_300_webhooks callback
2017-05-04T19:43:36+00:00 INFO Finished wc_update_300_webhooks callback
2017-05-04T19:43:36+00:00 INFO Running wc_update_300_grouped_products callback
2017-05-04T19:43:36+00:00 INFO Finished wc_update_300_grouped_products callback
2017-05-04T19:43:36+00:00 INFO Running wc_update_300_settings callback
2017-05-04T19:43:36+00:00 INFO Finished wc_update_300_settings callback
2017-05-04T19:43:36+00:00 INFO Running wc_update_300_product_visibility callback
2017-05-04T19:43:36+00:00 INFO Finished wc_update_300_product_visibility callback
2017-05-04T19:43:36+00:00 INFO Running wc_update_300_db_version callback
2017-05-04T19:43:36+00:00 INFO Finished wc_update_300_db_version callback
2017-05-04T19:43:36+00:00 INFO Data update complete
2017-09-03T15:58:33+00:00 INFO Queuing 3.1.0 - wc_update_310_downloadable_products
2017-09-03T15:58:33+00:00 INFO Queuing 3.1.0 - wc_update_310_old_comments
2017-09-03T15:58:33+00:00 INFO Queuing 3.1.0 - wc_update_310_db_version
2017-09-03T15:58:33+00:00 INFO Queuing 3.1.2 - wc_update_312_shop_manager_capabilities
2017-09-03T15:58:33+00:00 INFO Queuing 3.1.2 - wc_update_312_db_version
2017-09-03T15:58:36+00:00 INFO Running wc_update_310_downloadable_products callback
2017-09-03T15:58:36+00:00 INFO Finished wc_update_310_downloadable_products callback
2017-09-03T15:58:36+00:00 INFO Running wc_update_310_old_comments callback
2017-09-03T15:58:36+00:00 INFO Finished wc_update_310_old_comments callback
2017-09-03T15:58:36+00:00 INFO Running wc_update_310_db_version callback
2017-09-03T15:58:36+00:00 INFO Finished wc_update_310_db_version callback
2017-09-03T15:58:36+00:00 INFO Running wc_update_312_shop_manager_capabilities callback
2017-09-03T15:58:36+00:00 INFO Finished wc_update_312_shop_manager_capabilities callback
2017-09-03T15:58:36+00:00 INFO Running wc_update_312_db_version callback
2017-09-03T15:58:36+00:00 INFO Finished wc_update_312_db_version callback
2017-09-03T15:58:36+00:00 INFO Data update complete
